(module "logo" (layer F.Cu)
(fp_text reference Ref** (at 0 0) (layer F.SilkS) hide
(effects (font (size 1.27 1.27) (thickness 0.15)))
)
(fp_text value Val** (at 0 0) (layer F.SilkS) hide
(effects (font (size 1.27 1.27) (thickness 0.15)))
)
  (fp_poly (pts (xy 11.728450 2.076450) (xy 0.009129 2.079631) (xy -0.668589 2.079809) (xy -1.321322 2.079969) (xy -1.949486 2.080109) (xy -2.553495 2.080229) (xy -3.133765 2.080329) (xy -3.690711 2.080408)
     (xy -4.224748 2.080466) (xy -4.736292 2.080503) (xy -5.225757 2.080517) (xy -5.693560 2.080509) (xy -6.140115 2.080478) (xy -6.565837 2.080424) (xy -6.971141 2.080346) (xy -7.356444 2.080244)
     (xy -7.722159 2.080117) (xy -8.068703 2.079965) (xy -8.396491 2.079787) (xy -8.705936 2.079583) (xy -8.997456 2.079352) (xy -9.271465 2.079095) (xy -9.528379 2.078810) (xy -9.768611 2.078497)
     (xy -9.992579 2.078156) (xy -10.200697 2.077786) (xy -10.393379 2.077387) (xy -10.571043 2.076959) (xy -10.734101 2.076500) (xy -10.882971 2.076010) (xy -11.018067 2.075490) (xy -11.139804 2.074938)
     (xy -11.248597 2.074354) (xy -11.344863 2.073738) (xy -11.429015 2.073089) (xy -11.501469 2.072407) (xy -11.562641 2.071691) (xy -11.612945 2.070941) (xy -11.652797 2.070156) (xy -11.682612 2.069336)
     (xy -11.702805 2.068481) (xy -11.713792 2.067589) (xy -11.716232 2.066931) (xy -11.716878 2.052683) (xy -11.717465 2.014384) (xy -11.717992 1.953385) (xy -11.718456 1.871034) (xy -11.718856 1.768682)
     (xy -11.719190 1.647679) (xy -11.719456 1.509373) (xy -11.719652 1.355116) (xy -11.719777 1.186255) (xy -11.719829 1.004141) (xy -11.719806 0.810124) (xy -11.719706 0.605553) (xy -11.719528 0.391778)
     (xy -11.719269 0.170149) (xy -11.719011 -0.006350) (xy -11.715750 -2.063750) (xy 11.728450 -2.063750) (xy 11.728450 2.076450) )(layer B.Mask) (width  0.010000)
  )
  (fp_poly (pts (xy 11.728450 2.076450) (xy 0.009129 2.079631) (xy -0.668589 2.079809) (xy -1.321322 2.079969) (xy -1.949486 2.080109) (xy -2.553495 2.080229) (xy -3.133765 2.080329) (xy -3.690711 2.080408)
     (xy -4.224748 2.080466) (xy -4.736292 2.080503) (xy -5.225757 2.080517) (xy -5.693560 2.080509) (xy -6.140115 2.080478) (xy -6.565837 2.080424) (xy -6.971141 2.080346) (xy -7.356444 2.080244)
     (xy -7.722159 2.080117) (xy -8.068703 2.079965) (xy -8.396491 2.079787) (xy -8.705936 2.079583) (xy -8.997456 2.079352) (xy -9.271465 2.079095) (xy -9.528379 2.078810) (xy -9.768611 2.078497)
     (xy -9.992579 2.078156) (xy -10.200697 2.077786) (xy -10.393379 2.077387) (xy -10.571043 2.076959) (xy -10.734101 2.076500) (xy -10.882971 2.076010) (xy -11.018067 2.075490) (xy -11.139804 2.074938)
     (xy -11.248597 2.074354) (xy -11.344863 2.073738) (xy -11.429015 2.073089) (xy -11.501469 2.072407) (xy -11.562641 2.071691) (xy -11.612945 2.070941) (xy -11.652797 2.070156) (xy -11.682612 2.069336)
     (xy -11.702805 2.068481) (xy -11.713792 2.067589) (xy -11.716232 2.066931) (xy -11.716878 2.052683) (xy -11.717465 2.014384) (xy -11.717992 1.953385) (xy -11.718456 1.871034) (xy -11.718856 1.768682)
     (xy -11.719190 1.647679) (xy -11.719456 1.509373) (xy -11.719652 1.355116) (xy -11.719777 1.186255) (xy -11.719829 1.004141) (xy -11.719806 0.810124) (xy -11.719706 0.605553) (xy -11.719528 0.391778)
     (xy -11.719269 0.170149) (xy -11.719011 -0.006350) (xy -11.715750 -2.063750) (xy 11.728450 -2.063750) (xy 11.728450 2.076450) )(layer F.Mask) (width  0.010000)
  )
  (fp_poly (pts (xy 11.728450 2.076450) (xy 0.009129 2.079631) (xy -0.668589 2.079809) (xy -1.321322 2.079969) (xy -1.949486 2.080109) (xy -2.553495 2.080229) (xy -3.133765 2.080329) (xy -3.690711 2.080408)
     (xy -4.224748 2.080466) (xy -4.736292 2.080503) (xy -5.225757 2.080517) (xy -5.693560 2.080509) (xy -6.140115 2.080478) (xy -6.565837 2.080424) (xy -6.971141 2.080346) (xy -7.356444 2.080244)
     (xy -7.722159 2.080117) (xy -8.068703 2.079965) (xy -8.396491 2.079787) (xy -8.705936 2.079583) (xy -8.997456 2.079352) (xy -9.271465 2.079095) (xy -9.528379 2.078810) (xy -9.768611 2.078497)
     (xy -9.992579 2.078156) (xy -10.200697 2.077786) (xy -10.393379 2.077387) (xy -10.571043 2.076959) (xy -10.734101 2.076500) (xy -10.882971 2.076010) (xy -11.018067 2.075490) (xy -11.139804 2.074938)
     (xy -11.248597 2.074354) (xy -11.344863 2.073738) (xy -11.429015 2.073089) (xy -11.501469 2.072407) (xy -11.562641 2.071691) (xy -11.612945 2.070941) (xy -11.652797 2.070156) (xy -11.682612 2.069336)
     (xy -11.702805 2.068481) (xy -11.713792 2.067589) (xy -11.716232 2.066931) (xy -11.716878 2.052683) (xy -11.717465 2.014384) (xy -11.717992 1.953385) (xy -11.718456 1.871034) (xy -11.718856 1.768682)
     (xy -11.719190 1.647679) (xy -11.719456 1.509373) (xy -11.719652 1.355116) (xy -11.719777 1.186255) (xy -11.719782 1.166299) (xy -2.051346 1.166299) (xy -2.049463 1.236709) (xy -2.026114 1.307147)
     (xy -2.024430 1.310459) (xy -1.990123 1.350999) (xy -1.940321 1.376954) (xy -1.881128 1.387102) (xy -1.818652 1.380221) (xy -1.769975 1.361401) (xy -1.731576 1.327192) (xy -1.704521 1.274069)
     (xy -1.693712 1.227233) (xy -1.695045 1.153644) (xy -1.719767 1.088793) (xy -1.753728 1.046669) (xy -1.778310 1.025936) (xy -1.802955 1.014770) (xy -1.836898 1.010312) (xy -1.873250 1.009650)
     (xy -1.919893 1.010982) (xy -1.950464 1.016910) (xy -1.974234 1.030331) (xy -1.993269 1.047145) (xy -2.032402 1.101312) (xy -2.051346 1.166299) (xy -11.719782 1.166299) (xy -11.719829 1.004141)
     (xy -11.719829 1.003300) (xy -1.587500 1.003300) (xy -1.587500 1.549400) (xy -1.498600 1.549400) (xy -1.498600 1.447800) (xy -1.497619 1.400616) (xy -1.495011 1.365086) (xy -1.491281 1.347219)
     (xy -1.490076 1.346200) (xy -1.474980 1.353798) (xy -1.459641 1.366027) (xy -1.426383 1.381865) (xy -1.381832 1.386367) (xy -1.337335 1.379715) (xy -1.305835 1.363579) (xy -1.272440 1.319243)
     (xy -1.251994 1.261743) (xy -1.247116 1.220503) (xy -1.163062 1.220503) (xy -1.149266 1.278673) (xy -1.124074 1.327524) (xy -1.096205 1.355254) (xy -1.059073 1.372676) (xy -1.012803 1.385686)
     (xy -0.969822 1.391265) (xy -0.952500 1.390154) (xy -0.927745 1.385697) (xy -0.891782 1.379491) (xy -0.885825 1.378483) (xy -0.854387 1.370820) (xy -0.840961 1.357651) (xy -0.838200 1.333238)
     (xy -0.840234 1.307776) (xy -0.851088 1.302224) (xy -0.870777 1.308414) (xy -0.904366 1.316280) (xy -0.947688 1.320546) (xy -0.959677 1.320800) (xy -1.010493 1.312626) (xy -1.047311 1.290254)
     (xy -1.065601 1.256907) (xy -1.066800 1.244600) (xy -1.064979 1.232794) (xy -1.056372 1.225343) (xy -1.036269 1.221255) (xy -0.999958 1.219538) (xy -0.946150 1.219200) (xy -0.825500 1.219200)
     (xy -0.825500 1.167769) (xy -0.835554 1.101320) (xy -0.864576 1.051133) (xy -0.910863 1.018718) (xy -0.972708 1.005581) (xy -1.007791 1.006601) (xy -1.070263 1.024163) (xy -1.119017 1.061990)
     (xy -1.151507 1.117540) (xy -1.162609 1.161344) (xy -1.163062 1.220503) (xy -1.247116 1.220503) (xy -1.244423 1.197737) (xy -1.249654 1.133883) (xy -1.267612 1.076839) (xy -1.298225 1.033264)
     (xy -1.309585 1.024009) (xy -1.350606 1.007540) (xy -1.397908 1.005977) (xy -1.442023 1.018123) (xy -1.473482 1.042779) (xy -1.474956 1.044928) (xy -1.489574 1.051263) (xy -1.504930 1.040755)
     (xy -1.511300 1.021600) (xy -1.522739 1.007266) (xy -1.549400 1.003300) (xy -0.723900 1.003300) (xy -0.723900 1.384300) (xy -0.622300 1.384300) (xy -0.622300 1.255125) (xy -0.620613 1.184112)
     (xy -0.614392 1.134713) (xy -0.601897 1.103294) (xy -0.581390 1.086222) (xy -0.551132 1.079866) (xy -0.538229 1.079500) (xy -0.510749 1.082736) (xy -0.491622 1.094902) (xy -0.479424 1.119686)
     (xy -0.472732 1.160772) (xy -0.470122 1.221849) (xy -0.469900 1.256465) (xy -0.469900 1.384300) (xy -0.381000 1.384300) (xy -0.381000 1.230923) (xy -0.381187 1.166254) (xy -0.382429 1.121736)
     (xy -0.385749 1.092115) (xy -0.392171 1.072141) (xy -0.402718 1.056565) (xy -0.409186 1.049788) (xy -0.292100 1.049788) (xy -0.281150 1.062836) (xy -0.260350 1.066800) (xy -0.228600 1.066800)
     (xy -0.228600 1.384300) (xy -0.165100 1.384300) (xy -0.165100 1.066800) (xy -0.120650 1.066800) (xy -0.090015 1.063958) (xy -0.077653 1.052866) (xy -0.076200 1.041400) (xy -0.081173 1.023893)
     (xy -0.100584 1.016830) (xy -0.120650 1.016000) (xy -0.150567 1.013784) (xy -0.162782 1.003150) (xy -0.164906 0.981075) (xy -0.158497 0.939526) (xy -0.137738 0.917524) (xy -0.099454 0.911806)
     (xy -0.097571 0.911868) (xy -0.061094 0.907742) (xy -0.045213 0.892758) (xy -0.046663 0.870733) (xy -0.066713 0.856494) (xy -0.099474 0.851082) (xy -0.139060 0.855538) (xy -0.176892 0.869480)
     (xy -0.209139 0.892799) (xy -0.224907 0.924820) (xy -0.228600 0.966510) (xy -0.236056 0.999287) (xy -0.260350 1.018310) (xy -0.283783 1.034550) (xy -0.292100 1.049788) (xy -0.409186 1.049788)
     (xy -0.418124 1.040423) (xy -0.464117 1.010719) (xy -0.516582 1.002537) (xy -0.568171 1.016348) (xy -0.588715 1.029525) (xy -0.619533 1.046649) (xy -0.640286 1.043633) (xy -0.647700 1.021600)
     (xy -0.659139 1.007266) (xy -0.685800 1.003300) (xy -0.723900 1.003300) (xy -1.549400 1.003300) (xy -1.587500 1.003300) (xy -11.719829 1.003300) (xy -11.719811 0.850900) (xy 0.012700 0.850900)
     (xy 0.012700 1.384300) (xy 0.076200 1.384300) (xy 0.076200 1.213273) (xy 0.183964 1.213273) (xy 0.197365 1.278640) (xy 0.211211 1.310898) (xy 0.241025 1.345750) (xy 0.286270 1.373582)
     (xy 0.337090 1.389786) (xy 0.381000 1.390321) (xy 0.405757 1.385752) (xy 0.414097 1.384300) (xy 0.570155 1.384300) (xy 0.608537 1.384300) (xy 0.631970 1.381080) (xy 0.651936 1.368153)
     (xy 0.674265 1.340616) (xy 0.691601 1.314450) (xy 0.715904 1.278713) (xy 0.735783 1.253530) (xy 0.746458 1.244600) (xy 0.757782 1.254639) (xy 0.777343 1.280854) (xy 0.798966 1.314450)
     (xy 0.824460 1.353578) (xy 0.844481 1.374873) (xy 0.864712 1.383321) (xy 0.878599 1.384300) (xy 0.896625 1.384009) (xy 0.906128 1.380678) (xy 0.905870 1.370617) (xy 0.894616 1.350136)
     (xy 0.871129 1.315546) (xy 0.841479 1.273506) (xy 0.785643 1.194462) (xy 0.843671 1.113143) (xy 0.871002 1.073904) (xy 0.891409 1.042818) (xy 0.901293 1.025418) (xy 0.901700 1.023912)
     (xy 0.890725 1.018245) (xy 0.866775 1.016252) (xy 0.843360 1.020844) (xy 0.822742 1.037661) (xy 0.799055 1.071841) (xy 0.794300 1.079752) (xy 0.772357 1.113871) (xy 0.754361 1.136835)
     (xy 0.746150 1.143000) (xy 0.734288 1.133052) (xy 0.714418 1.107275) (xy 0.696077 1.079500) (xy 0.670708 1.042304) (xy 0.649941 1.022951) (xy 0.627579 1.016292) (xy 0.619652 1.016000)
     (xy 1.001228 1.016000) (xy 1.005439 1.174332) (xy 1.008219 1.248382) (xy 1.013148 1.301169) (xy 1.021978 1.336828) (xy 1.036460 1.359493) (xy 1.058343 1.373298) (xy 1.089380 1.382378)
     (xy 1.093970 1.383382) (xy 1.150455 1.385839) (xy 1.203204 1.371318) (xy 1.231474 1.352934) (xy 1.255371 1.335691) (xy 1.267344 1.339755) (xy 1.270000 1.358900) (xy 1.277441 1.378817)
     (xy 1.301750 1.384300) (xy 1.333500 1.384300) (xy 1.333500 1.200150) (xy 1.460500 1.200150) (xy 1.460500 1.384300) (xy 1.491059 1.384300) (xy 1.505023 1.383250) (xy 1.514127 1.376996)
     (xy 1.519664 1.360885) (xy 1.522927 1.330260) (xy 1.525210 1.280466) (xy 1.525984 1.258602) (xy 1.527710 1.231107) (xy 1.742007 1.231107) (xy 1.758534 1.290669) (xy 1.791771 1.339503)
     (xy 1.840025 1.373208) (xy 1.876466 1.384527) (xy 1.912434 1.389497) (xy 1.946801 1.388909) (xy 1.990421 1.382223) (xy 2.012950 1.377708) (xy 2.038537 1.364334) (xy 2.044700 1.348717)
     (xy 2.041793 1.336974) (xy 2.029491 1.330889) (xy 2.002420 1.329384) (xy 1.957761 1.331232) (xy 1.911075 1.333152) (xy 1.882199 1.331039) (xy 1.863630 1.322933) (xy 1.847863 1.306871)
     (xy 1.843461 1.301359) (xy 1.824446 1.268695) (xy 1.816115 1.237573) (xy 1.816100 1.236537) (xy 1.817071 1.222904) (xy 1.823077 1.214182) (xy 1.838752 1.209274) (xy 1.868733 1.207085)
     (xy 1.917654 1.206518) (xy 1.943100 1.206500) (xy 2.070100 1.206500) (xy 2.070100 1.174342) (xy 2.059839 1.113537) (xy 2.032175 1.065244) (xy 1.991785 1.030645) (xy 1.943344 1.010924)
     (xy 1.891528 1.007264) (xy 1.841016 1.020846) (xy 1.796482 1.052855) (xy 1.765861 1.097390) (xy 1.743884 1.165214) (xy 1.742007 1.231107) (xy 1.527710 1.231107) (xy 1.530449 1.187494)
     (xy 1.539571 1.137532) (xy 1.555600 1.104582) (xy 1.580783 1.084503) (xy 1.617370 1.073160) (xy 1.627742 1.071334) (xy 1.659959 1.063639) (xy 1.673811 1.050741) (xy 1.676400 1.031839)
     (xy 1.673834 1.010666) (xy 1.661069 1.004620) (xy 1.635584 1.008288) (xy 1.597414 1.023163) (xy 1.562193 1.047663) (xy 1.561678 1.048153) (xy 1.533934 1.069016) (xy 1.517363 1.067273)
     (xy 1.511345 1.042815) (xy 1.511300 1.039283) (xy 1.501370 1.019652) (xy 1.485900 1.016000) (xy 1.475996 1.017282) (xy 1.469067 1.023687) (xy 1.464583 1.039052) (xy 1.462015 1.067212)
     (xy 1.460833 1.112005) (xy 1.460509 1.177268) (xy 1.460500 1.200150) (xy 1.333500 1.200150) (xy 1.333500 1.016000) (xy 1.257300 1.016000) (xy 1.257300 1.141287) (xy 1.256595 1.201385)
     (xy 1.253796 1.242220) (xy 1.247871 1.269909) (xy 1.237792 1.290566) (xy 1.230459 1.300697) (xy 1.207989 1.323196) (xy 1.181694 1.331476) (xy 1.151381 1.330984) (xy 1.118015 1.325085)
     (xy 1.094576 1.310612) (xy 1.079420 1.283846) (xy 1.070903 1.241064) (xy 1.067384 1.178546) (xy 1.066987 1.139825) (xy 1.066800 1.016000) (xy 1.001228 1.016000) (xy 0.619652 1.016000)
     (xy 0.601483 1.016337) (xy 0.592169 1.019898) (xy 0.592883 1.030507) (xy 0.604795 1.051990) (xy 0.629079 1.088171) (xy 0.651874 1.121125) (xy 0.702672 1.194501) (xy 0.636413 1.289400)
     (xy 0.570155 1.384300) (xy 0.414097 1.384300) (xy 0.441723 1.379491) (xy 0.447675 1.378483) (xy 0.481576 1.368743) (xy 0.494727 1.353015) (xy 0.495300 1.347320) (xy 0.492704 1.335183)
     (xy 0.481278 1.329018) (xy 0.455563 1.327741) (xy 0.410103 1.330269) (xy 0.409575 1.330307) (xy 0.345936 1.330151) (xy 0.301971 1.317742) (xy 0.274147 1.291146) (xy 0.258927 1.248426)
     (xy 0.258800 1.247775) (xy 0.250825 1.206500) (xy 0.511303 1.206500) (xy 0.504772 1.148559) (xy 0.487131 1.087510) (xy 0.449815 1.042523) (xy 0.396554 1.014846) (xy 0.337692 1.006559)
     (xy 0.285149 1.019692) (xy 0.241215 1.050588) (xy 0.208179 1.095589) (xy 0.188332 1.151036) (xy 0.183964 1.213273) (xy 0.076200 1.213273) (xy 0.076200 0.850900) (xy 0.012700 0.850900)
     (xy -11.719811 0.850900) (xy -11.719806 0.810124) (xy -11.719706 0.605553) (xy -11.719528 0.391778) (xy -11.719269 0.170149) (xy -11.719258 0.162008) (xy -1.772626 0.162008) (xy -1.759903 0.167743)
     (xy -1.726191 0.181590) (xy -1.674186 0.202493) (xy -1.606588 0.229400) (xy -1.526094 0.261254) (xy -1.435402 0.297001) (xy -1.337211 0.335587) (xy -1.234219 0.375957) (xy -1.129124 0.417057)
     (xy -1.024625 0.457831) (xy -0.923418 0.497225) (xy -0.828204 0.534186) (xy -0.741679 0.567657) (xy -0.666542 0.596585) (xy -0.605492 0.619914) (xy -0.561225 0.636591) (xy -0.536442 0.645561)
     (xy -0.532227 0.646823) (xy -0.526023 0.635634) (xy -0.511821 0.603454) (xy -0.490731 0.553002) (xy -0.463863 0.486997) (xy -0.432326 0.408158) (xy -0.397230 0.319205) (xy -0.368724 0.246160)
     (xy -0.331503 0.150130) (xy -0.297115 0.061000) (xy -0.266675 -0.018305) (xy -0.241303 -0.084855) (xy -0.222115 -0.135722) (xy -0.210228 -0.167980) (xy -0.206809 -0.178073) (xy -0.210481 -0.197145)
     (xy -0.233450 -0.218646) (xy -0.257839 -0.234150) (xy -0.344792 -0.299171) (xy -0.415618 -0.381085) (xy -0.467654 -0.475659) (xy -0.498235 -0.578660) (xy -0.504210 -0.625602) (xy -0.501344 -0.742296)
     (xy -0.475201 -0.849762) (xy -0.426770 -0.946275) (xy -0.357042 -1.030109) (xy -0.267005 -1.099537) (xy -0.216374 -1.127481) (xy -0.181299 -1.143438) (xy -0.149508 -1.153597) (xy -0.113495 -1.159234)
     (xy -0.065751 -1.161622) (xy -0.012700 -1.162050) (xy 0.049686 -1.161431) (xy 0.094608 -1.158616) (xy 0.129988 -1.152170) (xy 0.163751 -1.140655) (xy 0.203236 -1.122911) (xy 0.256591 -1.092761)
     (xy 0.310530 -1.054586) (xy 0.345242 -1.024352) (xy 0.411735 -0.941294) (xy 0.457429 -0.848606) (xy 0.482782 -0.749886) (xy 0.488250 -0.648732) (xy 0.474291 -0.548740) (xy 0.441363 -0.453509)
     (xy 0.389923 -0.366635) (xy 0.320428 -0.291716) (xy 0.245377 -0.238914) (xy 0.178884 -0.201388) (xy 0.202027 -0.141969) (xy 0.212474 -0.115014) (xy 0.230663 -0.067932) (xy 0.255216 -0.004303)
     (xy 0.284752 0.072296) (xy 0.317891 0.158285) (xy 0.353252 0.250087) (xy 0.362094 0.273050) (xy 0.396770 0.362721) (xy 0.428759 0.444718) (xy 0.456867 0.516034) (xy 0.479900 0.573666)
     (xy 0.496663 0.614610) (xy 0.505962 0.635861) (xy 0.507217 0.638073) (xy 0.519774 0.634982) (xy 0.553327 0.623707) (xy 0.605195 0.605268) (xy 0.672701 0.580681) (xy 0.753165 0.550966)
     (xy 0.843908 0.517141) (xy 0.942250 0.480224) (xy 1.045514 0.441235) (xy 1.151018 0.401190) (xy 1.256086 0.361109) (xy 1.358036 0.322010) (xy 1.454191 0.284911) (xy 1.541871 0.250832)
     (xy 1.618397 0.220789) (xy 1.681090 0.195803) (xy 1.727270 0.176890) (xy 1.754260 0.165070) (xy 1.760129 0.161803) (xy 1.757016 0.149092) (xy 1.745688 0.115411) (xy 1.727135 0.063465)
     (xy 1.702349 -0.004044) (xy 1.672323 -0.084412) (xy 1.638047 -0.174935) (xy 1.603570 -0.264973) (xy 1.441450 -0.686187) (xy 1.371600 -0.677319) (xy 1.278597 -0.670092) (xy 1.185551 -0.671014)
     (xy 1.101389 -0.679710) (xy 1.050335 -0.690853) (xy 0.982218 -0.716497) (xy 0.925875 -0.752146) (xy 0.878110 -0.801339) (xy 0.835729 -0.867619) (xy 0.795537 -0.954524) (xy 0.782416 -0.987791)
     (xy 0.718630 -1.120314) (xy 0.634806 -1.238744) (xy 0.533106 -1.340985) (xy 0.415695 -1.424944) (xy 0.284736 -1.488524) (xy 0.254000 -1.499678) (xy 0.178891 -1.518494) (xy 0.088573 -1.530650)
     (xy -0.007843 -1.535768) (xy -0.101249 -1.533469) (xy -0.182534 -1.523375) (xy -0.203528 -1.518686) (xy -0.344893 -1.470226) (xy -0.472259 -1.400852) (xy -0.584663 -1.311450) (xy -0.681138 -1.202907)
     (xy -0.760720 -1.076110) (xy -0.812796 -0.958863) (xy -0.850480 -0.871006) (xy -0.891709 -0.804241) (xy -0.940489 -0.754264) (xy -1.000823 -0.716771) (xy -1.060302 -0.692803) (xy -1.115854 -0.680122)
     (xy -1.187967 -0.672445) (xy -1.268228 -0.670137) (xy -1.348224 -0.673565) (xy -1.391598 -0.678384) (xy -1.456045 -0.687571) (xy -1.618559 -0.267005) (xy -1.655916 -0.169504) (xy -1.689779 -0.079529)
     (xy -1.719169 0.000196) (xy -1.743106 0.066946) (xy -1.760613 0.117995) (xy -1.770710 0.150619) (xy -1.772626 0.162008) (xy -11.719258 0.162008) (xy -11.719011 -0.006350) (xy -11.715750 -2.063750)
     (xy 11.728450 -2.063750) (xy 11.728450 2.076450) )(layer F.Cu) (width  0.010000)
  )
  (fp_poly (pts (xy -1.376335 1.086377) (xy -1.357492 1.100246) (xy -1.347124 1.125979) (xy -1.341140 1.168525) (xy -1.340274 1.194397) (xy -1.346142 1.256484) (xy -1.364227 1.296699) (xy -1.395245 1.315822)
     (xy -1.439915 1.314630) (xy -1.449206 1.312386) (xy -1.472168 1.294322) (xy -1.488599 1.258977) (xy -1.497407 1.213879) (xy -1.497504 1.166556) (xy -1.487799 1.124537) (xy -1.478830 1.107725)
     (xy -1.450768 1.086583) (xy -1.412918 1.079240) (xy -1.376335 1.086377) )(layer F.Cu) (width  0.010000)
  )
  (fp_poly (pts (xy -1.833313 1.086872) (xy -1.806884 1.110695) (xy -1.793404 1.153526) (xy -1.790700 1.197975) (xy -1.797817 1.259252) (xy -1.819107 1.299631) (xy -1.854481 1.318978) (xy -1.873250 1.320800)
     (xy -1.906101 1.311966) (xy -1.930400 1.295400) (xy -1.947313 1.269687) (xy -1.954847 1.231833) (xy -1.955800 1.202975) (xy -1.949839 1.142067) (xy -1.931347 1.102364) (xy -1.899418 1.082488)
     (xy -1.874499 1.079500) (xy -1.833313 1.086872) )(layer F.Cu) (width  0.010000)
  )
  (fp_poly (pts (xy -0.947761 1.077092) (xy -0.918602 1.106416) (xy -0.910861 1.127125) (xy -0.908741 1.142552) (xy -0.915162 1.151111) (xy -0.935389 1.154818) (xy -0.974682 1.155688) (xy -0.985439 1.155700)
     (xy -1.034152 1.153844) (xy -1.060324 1.147930) (xy -1.066800 1.139475) (xy -1.055731 1.106342) (xy -1.028671 1.079140) (xy -0.994845 1.066867) (xy -0.992308 1.066800) (xy -0.947761 1.077092) )(layer F.Cu) (width  0.010000)
  )
  (fp_poly (pts (xy 0.388226 1.065599) (xy 0.421006 1.095419) (xy 0.438985 1.133475) (xy 0.447253 1.168400) (xy 0.251246 1.168400) (xy 0.259514 1.133475) (xy 0.279396 1.092912) (xy 0.312860 1.064134)
     (xy 0.349250 1.054100) (xy 0.388226 1.065599) )(layer F.Cu) (width  0.010000)
  )
  (fp_poly (pts (xy 1.948954 1.065354) (xy 1.979306 1.093696) (xy 1.993637 1.130990) (xy 1.993900 1.136650) (xy 1.992592 1.153237) (xy 1.984981 1.162731) (xy 1.965530 1.167107) (xy 1.928705 1.168342)
     (xy 1.905000 1.168400) (xy 1.858329 1.167739) (xy 1.831595 1.164695) (xy 1.819349 1.157676) (xy 1.816139 1.145088) (xy 1.816100 1.142422) (xy 1.826879 1.110957) (xy 1.853480 1.080567)
     (xy 1.887293 1.059281) (xy 1.910772 1.054100) (xy 1.948954 1.065354) )(layer F.Cu) (width  0.010000)
  )
  (fp_poly (pts (xy 8.566150 -1.936750) (xy -0.619125 -1.933567) (xy -9.804400 -1.930383) (xy -9.804400 -2.197100) (xy 8.573388 -2.197100) (xy 8.566150 -1.936750) )(layer B.Cu) (width  0.010000)
  )
)