
(module QFN21P50_400X400X100L40X24T270N (layer F.Cu) (tedit 5E627859)
  (descr "")
  (fp_text reference REF** (at 0.636255 -3.817455 0) (layer F.SilkS)
    (effects (font (size 1.00196062992 1.00196062992) (thickness 0.015)))
  )
  (fp_text value QFN21P50_400X400X100L40X24T270N (at 17.16119 3.81361 0) (layer F.Fab)
    (effects (font (size 1.00094488189 1.00094488189) (thickness 0.015)))
  )
  (fp_line (start -2.0 -1.524) (end -2.0 -2.0) (layer F.SilkS) (width 0.2))
  (fp_line (start -2.0 -2.0) (end -1.524 -2.0) (layer F.SilkS) (width 0.2))
  (fp_line (start 1.524 -2.0) (end 2.0 -2.0) (layer F.SilkS) (width 0.2))
  (fp_line (start 2.0 -1.524) (end 2.0 -2.0) (layer F.SilkS) (width 0.2))
  (fp_line (start -2.0 2.0) (end -2.0 1.524) (layer F.SilkS) (width 0.2))
  (fp_line (start -2.0 2.0) (end -1.524 2.0) (layer F.SilkS) (width 0.2))
  (fp_line (start 2.0 2.0) (end 2.0 1.524) (layer F.SilkS) (width 0.2))
  (fp_line (start 1.524 2.0) (end 2.0 2.0) (layer F.SilkS) (width 0.2))
  (fp_circle (center -2.54 -1.397) (end -2.44 -1.397) (layer F.SilkS) (width 0.2))
  (fp_line (start -2.0 -2.0) (end -2.0 2.0) (layer F.Fab) (width 0.1))
  (fp_line (start -2.0 2.0) (end 2.0 2.0) (layer F.Fab) (width 0.1))
  (fp_line (start 2.0 2.0) (end 2.0 -2.0) (layer F.Fab) (width 0.1))
  (fp_line (start 2.0 -2.0) (end -2.0 -2.0) (layer F.Fab) (width 0.1))
  (fp_line (start -2.667 -2.667) (end -2.667 2.667) (layer F.CrtYd) (width 0.05))
  (fp_line (start -2.667 2.667) (end 2.667 2.667) (layer F.CrtYd) (width 0.05))
  (fp_line (start 2.667 2.667) (end 2.667 -2.667) (layer F.CrtYd) (width 0.05))
  (fp_line (start 2.667 -2.667) (end -2.667 -2.667) (layer F.CrtYd) (width 0.05))
  (fp_poly
    (pts
      (xy 0.130064 -1.09)
      (xy 1.09 -1.09)
      (xy 1.09 -0.130064)
      (xy 0.130064 -0.130064)
    ) (layer F.Paste) (width 0.01)
  )
  (fp_poly
    (pts
      (xy -1.09037 -1.09)
      (xy -0.13 -1.09)
      (xy -0.13 -0.130045)
      (xy -1.09037 -0.130045)
    ) (layer F.Paste) (width 0.01)
  )
  (fp_poly
    (pts
      (xy 0.130131 0.13)
      (xy 1.09 0.13)
      (xy 1.09 1.0911)
      (xy 0.130131 1.0911)
    ) (layer F.Paste) (width 0.01)
  )
  (fp_poly
    (pts
      (xy -1.09016 0.13)
      (xy -0.13 0.13)
      (xy -0.13 1.09016)
      (xy -1.09016 1.09016)
    ) (layer F.Paste) (width 0.01)
  )
  (pad 1 smd rect (at -1.905 -1.0) (size 0.71 0.26) (layers F.Cu F.Mask F.Paste))
  (pad 2 smd rect (at -1.905 -0.5) (size 0.71 0.26) (layers F.Cu F.Mask F.Paste))
  (pad 3 smd rect (at -1.905 0.0) (size 0.71 0.26) (layers F.Cu F.Mask F.Paste))
  (pad 4 smd rect (at -1.905 0.5) (size 0.71 0.26) (layers F.Cu F.Mask F.Paste))
  (pad 5 smd rect (at -1.905 1.0) (size 0.71 0.26) (layers F.Cu F.Mask F.Paste))
  (pad 6 smd rect (at -1.0 1.905) (size 0.26 0.71) (layers F.Cu F.Mask F.Paste))
  (pad 7 smd rect (at -0.5 1.905) (size 0.26 0.71) (layers F.Cu F.Mask F.Paste))
  (pad 8 smd rect (at 0.0 1.905) (size 0.26 0.71) (layers F.Cu F.Mask F.Paste))
  (pad 9 smd rect (at 0.5 1.905) (size 0.26 0.71) (layers F.Cu F.Mask F.Paste))
  (pad 10 smd rect (at 1.0 1.905) (size 0.26 0.71) (layers F.Cu F.Mask F.Paste))
  (pad 11 smd rect (at 1.905 1.0) (size 0.71 0.26) (layers F.Cu F.Mask F.Paste))
  (pad 12 smd rect (at 1.905 0.5) (size 0.71 0.26) (layers F.Cu F.Mask F.Paste))
  (pad 13 smd rect (at 1.905 0.0) (size 0.71 0.26) (layers F.Cu F.Mask F.Paste))
  (pad 14 smd rect (at 1.905 -0.5) (size 0.71 0.26) (layers F.Cu F.Mask F.Paste))
  (pad 15 smd rect (at 1.905 -1.0) (size 0.71 0.26) (layers F.Cu F.Mask F.Paste))
  (pad 16 smd rect (at 1.0 -1.905) (size 0.26 0.71) (layers F.Cu F.Mask F.Paste))
  (pad 17 smd rect (at 0.5 -1.905) (size 0.26 0.71) (layers F.Cu F.Mask F.Paste))
  (pad 18 smd rect (at 0.0 -1.905) (size 0.26 0.71) (layers F.Cu F.Mask F.Paste))
  (pad 19 smd rect (at -0.5 -1.905) (size 0.26 0.71) (layers F.Cu F.Mask F.Paste))
  (pad 20 smd rect (at -1.0 -1.905) (size 0.26 0.71) (layers F.Cu F.Mask F.Paste))
  (pad 21 smd rect (at 0.0 0.0) (size 2.7 2.7) (layers F.Cu F.Mask))
)